('C:\\Users\\ecelona\\Documents\\My '
 'projects\\stensul_ezequielcelona\\dist\\exe_suite.exe',
 True,
 False,
 False,
 None,
 None,
 False,
 False,
 '<?xml version="1.0" encoding="UTF-8" standalone="yes"?><assembly manifestVersion="1.0" xmlns="urn:schemas-microsoft-com:asm.v1"><assemblyIdentity name="exe_suite" processorArchitecture="x86" type="win32" version="1.0.0.0"/><dependency><dependentAssembly><assemblyIdentity language="*" name="Microsoft.Windows.Common-Controls" processorArchitecture="*" publicKeyToken="6595b64144ccf1df" type="win32" version="6.0.0.0"/><compatibility xmlns="urn:schemas-microsoft-com:compatibility.v1"/></dependentAssembly></dependency><compatibility xmlns="urn:schemas-microsoft-com:compatibility.v1"><application><supportedOS Id="{e2011457-1546-43c5-a5fe-008deee3d3f0}"/><supportedOS Id="{35138b9a-5d96-4fbd-8e2d-a2440225f93a}"/><supportedOS Id="{4a2f28e3-53b9-4441-ba9c-d69d4a4a6e38}"/><supportedOS Id="{1f676c76-80e1-4239-95bb-83d0f6d0da78}"/><supportedOS Id="{8e0f7a12-bfb3-4fe8-b9a5-48fd50a15a9a}"/></application></compatibility></assembly>',
 True,
 'exe_suite.pkg',
 [('PYZ-00.pyz',
   'C:\\Users\\ecelona\\Documents\\My '
   'projects\\stensul_ezequielcelona\\build\\exe_suite\\PYZ-00.pyz',
   'PYZ'),
  ('struct',
   'C:\\Users\\ecelona\\AppData\\Local\\Programs\\Python\\Python36-32\\lib\\struct.pyo',
   'PYMODULE'),
  ('pyimod01_os_path',
   'C:\\Users\\ecelona\\Documents\\My '
   'projects\\base_foundation\\venv\\lib\\site-packages\\PyInstaller\\loader\\pyimod01_os_path.pyc',
   'PYMODULE'),
  ('pyimod02_archive',
   'C:\\Users\\ecelona\\Documents\\My '
   'projects\\base_foundation\\venv\\lib\\site-packages\\PyInstaller\\loader\\pyimod02_archive.pyc',
   'PYMODULE'),
  ('pyimod03_importers',
   'C:\\Users\\ecelona\\Documents\\My '
   'projects\\base_foundation\\venv\\lib\\site-packages\\PyInstaller\\loader\\pyimod03_importers.pyc',
   'PYMODULE'),
  ('pyiboot01_bootstrap',
   'C:\\Users\\ecelona\\Documents\\My '
   'projects\\base_foundation\\venv\\lib\\site-packages\\PyInstaller\\loader\\pyiboot01_bootstrap.py',
   'PYSOURCE'),
  ('exe_suite',
   'C:\\Users\\ecelona\\Documents\\My '
   'projects\\stensul_ezequielcelona\\exe_suite.py',
   'PYSOURCE'),
  ('VCRUNTIME140.dll',
   'C:\\Users\\ecelona\\Documents\\My '
   'projects\\base_foundation\\venv\\Scripts\\VCRUNTIME140.dll',
   'BINARY'),
  ('python36.dll',
   'C:\\Users\\ecelona\\Documents\\My '
   'projects\\base_foundation\\venv\\Scripts\\python36.dll',
   'BINARY'),
  ('_ssl',
   'C:\\Users\\ecelona\\Documents\\My '
   'projects\\base_foundation\\venv\\Scripts\\_ssl.pyd',
   'EXTENSION'),
  ('unicodedata',
   'C:\\Users\\ecelona\\Documents\\My '
   'projects\\base_foundation\\venv\\Scripts\\unicodedata.pyd',
   'EXTENSION'),
  ('pyexpat',
   'C:\\Users\\ecelona\\Documents\\My '
   'projects\\base_foundation\\venv\\Scripts\\pyexpat.pyd',
   'EXTENSION'),
  ('_hashlib',
   'C:\\Users\\ecelona\\Documents\\My '
   'projects\\base_foundation\\venv\\Scripts\\_hashlib.pyd',
   'EXTENSION'),
  ('select',
   'C:\\Users\\ecelona\\Documents\\My '
   'projects\\base_foundation\\venv\\Scripts\\select.pyd',
   'EXTENSION'),
  ('_bz2',
   'C:\\Users\\ecelona\\Documents\\My '
   'projects\\base_foundation\\venv\\Scripts\\_bz2.pyd',
   'EXTENSION'),
  ('_lzma',
   'C:\\Users\\ecelona\\Documents\\My '
   'projects\\base_foundation\\venv\\Scripts\\_lzma.pyd',
   'EXTENSION'),
  ('_socket',
   'C:\\Users\\ecelona\\Documents\\My '
   'projects\\base_foundation\\venv\\Scripts\\_socket.pyd',
   'EXTENSION'),
  ('_ctypes',
   'C:\\Users\\ecelona\\Documents\\My '
   'projects\\base_foundation\\venv\\Scripts\\_ctypes.pyd',
   'EXTENSION'),
  ('base_library.zip',
   'C:\\Users\\ecelona\\Documents\\My '
   'projects\\stensul_ezequielcelona\\build\\exe_suite\\base_library.zip',
   'DATA'),
  ('selenium\\webdriver\\remote\\getAttribute.js',
   'C:\\Users\\ecelona\\Documents\\My '
   'projects\\base_foundation\\venv\\lib\\site-packages\\selenium\\webdriver\\remote\\getAttribute.js',
   'DATA'),
  ('selenium\\webdriver\\firefox\\webdriver_prefs.json',
   'C:\\Users\\ecelona\\Documents\\My '
   'projects\\base_foundation\\venv\\lib\\site-packages\\selenium\\webdriver\\firefox\\webdriver_prefs.json',
   'DATA'),
  ('selenium\\webdriver\\firefox\\amd64\\x_ignore_nofocus.so',
   'C:\\Users\\ecelona\\Documents\\My '
   'projects\\base_foundation\\venv\\lib\\site-packages\\selenium\\webdriver\\firefox\\amd64\\x_ignore_nofocus.so',
   'DATA'),
  ('selenium\\webdriver\\firefox\\x86\\x_ignore_nofocus.so',
   'C:\\Users\\ecelona\\Documents\\My '
   'projects\\base_foundation\\venv\\lib\\site-packages\\selenium\\webdriver\\firefox\\x86\\x_ignore_nofocus.so',
   'DATA'),
  ('selenium\\webdriver\\remote\\isDisplayed.js',
   'C:\\Users\\ecelona\\Documents\\My '
   'projects\\base_foundation\\venv\\lib\\site-packages\\selenium\\webdriver\\remote\\isDisplayed.js',
   'DATA'),
  ('selenium\\webdriver\\firefox\\webdriver.xpi',
   'C:\\Users\\ecelona\\Documents\\My '
   'projects\\base_foundation\\venv\\lib\\site-packages\\selenium\\webdriver\\firefox\\webdriver.xpi',
   'DATA'),
  ('exe_suite.exe.manifest',
   'C:\\Users\\ecelona\\Documents\\My '
   'projects\\stensul_ezequielcelona\\build\\exe_suite\\exe_suite.exe.manifest',
   'BINARY'),
  ('pyi-windows-manifest-filename exe_suite.exe.manifest', '', 'OPTION')],
 [],
 False,
 False,
 1557494982,
 [('run.exe',
   'C:\\Users\\ecelona\\Documents\\My '
   'projects\\base_foundation\\venv\\lib\\site-packages\\PyInstaller\\bootloader\\Windows-32bit\\run.exe',
   'EXECUTABLE')])
