('C:\\Users\\ecelona\\Documents\\My '
 'projects\\stensul_ezequielcelona\\build\\exe_suite\\PKG-00.pkg',
 {'BINARY': 1,
  'DATA': 1,
  'EXECUTABLE': 1,
  'EXTENSION': 1,
  'PYMODULE': 1,
  'PYSOURCE': 1,
  'PYZ': 0},
 [('PYZ-00.pyz',
   'C:\\Users\\ecelona\\Documents\\My '
   'projects\\stensul_ezequielcelona\\build\\exe_suite\\PYZ-00.pyz',
   'PYZ'),
  ('struct',
   'C:\\Users\\ecelona\\AppData\\Local\\Programs\\Python\\Python36-32\\lib\\struct.pyo',
   'PYMODULE'),
  ('pyimod01_os_path',
   'C:\\Users\\ecelona\\Documents\\My '
   'projects\\base_foundation\\venv\\lib\\site-packages\\PyInstaller\\loader\\pyimod01_os_path.pyc',
   'PYMODULE'),
  ('pyimod02_archive',
   'C:\\Users\\ecelona\\Documents\\My '
   'projects\\base_foundation\\venv\\lib\\site-packages\\PyInstaller\\loader\\pyimod02_archive.pyc',
   'PYMODULE'),
  ('pyimod03_importers',
   'C:\\Users\\ecelona\\Documents\\My '
   'projects\\base_foundation\\venv\\lib\\site-packages\\PyInstaller\\loader\\pyimod03_importers.pyc',
   'PYMODULE'),
  ('pyiboot01_bootstrap',
   'C:\\Users\\ecelona\\Documents\\My '
   'projects\\base_foundation\\venv\\lib\\site-packages\\PyInstaller\\loader\\pyiboot01_bootstrap.py',
   'PYSOURCE'),
  ('exe_suite',
   'C:\\Users\\ecelona\\Documents\\My '
   'projects\\stensul_ezequielcelona\\exe_suite.py',
   'PYSOURCE'),
  ('VCRUNTIME140.dll',
   'C:\\Users\\ecelona\\Documents\\My '
   'projects\\base_foundation\\venv\\Scripts\\VCRUNTIME140.dll',
   'BINARY'),
  ('python36.dll',
   'C:\\Users\\ecelona\\Documents\\My '
   'projects\\base_foundation\\venv\\Scripts\\python36.dll',
   'BINARY'),
  ('_ssl',
   'C:\\Users\\ecelona\\Documents\\My '
   'projects\\base_foundation\\venv\\Scripts\\_ssl.pyd',
   'EXTENSION'),
  ('unicodedata',
   'C:\\Users\\ecelona\\Documents\\My '
   'projects\\base_foundation\\venv\\Scripts\\unicodedata.pyd',
   'EXTENSION'),
  ('pyexpat',
   'C:\\Users\\ecelona\\Documents\\My '
   'projects\\base_foundation\\venv\\Scripts\\pyexpat.pyd',
   'EXTENSION'),
  ('_hashlib',
   'C:\\Users\\ecelona\\Documents\\My '
   'projects\\base_foundation\\venv\\Scripts\\_hashlib.pyd',
   'EXTENSION'),
  ('select',
   'C:\\Users\\ecelona\\Documents\\My '
   'projects\\base_foundation\\venv\\Scripts\\select.pyd',
   'EXTENSION'),
  ('_bz2',
   'C:\\Users\\ecelona\\Documents\\My '
   'projects\\base_foundation\\venv\\Scripts\\_bz2.pyd',
   'EXTENSION'),
  ('_lzma',
   'C:\\Users\\ecelona\\Documents\\My '
   'projects\\base_foundation\\venv\\Scripts\\_lzma.pyd',
   'EXTENSION'),
  ('_socket',
   'C:\\Users\\ecelona\\Documents\\My '
   'projects\\base_foundation\\venv\\Scripts\\_socket.pyd',
   'EXTENSION'),
  ('_ctypes',
   'C:\\Users\\ecelona\\Documents\\My '
   'projects\\base_foundation\\venv\\Scripts\\_ctypes.pyd',
   'EXTENSION'),
  ('base_library.zip',
   'C:\\Users\\ecelona\\Documents\\My '
   'projects\\stensul_ezequielcelona\\build\\exe_suite\\base_library.zip',
   'DATA'),
  ('selenium\\webdriver\\remote\\getAttribute.js',
   'C:\\Users\\ecelona\\Documents\\My '
   'projects\\base_foundation\\venv\\lib\\site-packages\\selenium\\webdriver\\remote\\getAttribute.js',
   'DATA'),
  ('selenium\\webdriver\\firefox\\webdriver_prefs.json',
   'C:\\Users\\ecelona\\Documents\\My '
   'projects\\base_foundation\\venv\\lib\\site-packages\\selenium\\webdriver\\firefox\\webdriver_prefs.json',
   'DATA'),
  ('selenium\\webdriver\\firefox\\amd64\\x_ignore_nofocus.so',
   'C:\\Users\\ecelona\\Documents\\My '
   'projects\\base_foundation\\venv\\lib\\site-packages\\selenium\\webdriver\\firefox\\amd64\\x_ignore_nofocus.so',
   'DATA'),
  ('selenium\\webdriver\\firefox\\x86\\x_ignore_nofocus.so',
   'C:\\Users\\ecelona\\Documents\\My '
   'projects\\base_foundation\\venv\\lib\\site-packages\\selenium\\webdriver\\firefox\\x86\\x_ignore_nofocus.so',
   'DATA'),
  ('selenium\\webdriver\\remote\\isDisplayed.js',
   'C:\\Users\\ecelona\\Documents\\My '
   'projects\\base_foundation\\venv\\lib\\site-packages\\selenium\\webdriver\\remote\\isDisplayed.js',
   'DATA'),
  ('selenium\\webdriver\\firefox\\webdriver.xpi',
   'C:\\Users\\ecelona\\Documents\\My '
   'projects\\base_foundation\\venv\\lib\\site-packages\\selenium\\webdriver\\firefox\\webdriver.xpi',
   'DATA'),
  ('exe_suite.exe.manifest',
   'C:\\Users\\ecelona\\Documents\\My '
   'projects\\stensul_ezequielcelona\\build\\exe_suite\\exe_suite.exe.manifest',
   'BINARY'),
  ('pyi-windows-manifest-filename exe_suite.exe.manifest', '', 'OPTION')],
 False,
 False,
 False)
